<?xml version="1.0" standalone="no"?>
<!DOCTYPE svg PUBLIC "-//W3C//DTD SVG 20010904//EN"
 "http://www.w3.org/TR/2001/REC-SVG-20010904/DTD/svg10.dtd">
<svg version="1.0" xmlns="http://www.w3.org/2000/svg"
 width="512.000000pt" height="512.000000pt" viewBox="0 0 512.000000 512.000000"
 preserveAspectRatio="xMidYMid meet">

<g transform="translate(0.000000,512.000000) scale(0.100000,-0.100000)"
fill="#000000" stroke="none">
<path d="M754 4644 c-368 -262 -674 -483 -681 -492 -10 -14 -12 -364 -13
-1699 l0 -1682 22 -24 c27 -29 1337 -747 1363 -747 19 0 3544 889 3560 897 6
4 20 15 33 26 l22 20 0 1482 c0 1306 -2 1483 -15 1502 -12 17 -130 60 -519
187 -277 91 -519 166 -538 166 -26 0 -94 -40 -322 -189 -159 -104 -295 -200
-302 -213 -10 -18 -13 -134 -14 -525 0 -440 -2 -503 -15 -503 -13 0 -15 97
-15 814 0 764 -1 815 -18 836 -13 16 -233 92 -927 321 -501 164 -920 299 -932
299 -12 0 -301 -200 -689 -476z m1071 -42 l160 -47 3 -184 c1 -106 -2 -189 -7
-194 -9 -9 -285 51 -338 73 -23 9 -23 12 -23 198 0 104 3 192 7 195 11 12 33
7 198 -41z m-567 -34 c17 -17 17 -362 0 -375 -7 -6 -46 -27 -86 -49 -72 -38
-74 -38 -88 -20 -11 15 -14 57 -14 177 0 182 -2 177 100 239 74 45 72 44 88
28z m1142 -131 l145 -42 3 -176 c2 -144 0 -178 -12 -182 -22 -9 -289 62 -303
80 -9 12 -13 63 -13 171 0 140 8 192 28 192 4 0 72 -19 152 -43z m-1512 -269
l2 -166 -27 -20 c-58 -40 -108 -61 -126 -51 -15 9 -17 29 -17 169 l0 158 63
41 c101 66 102 66 105 -131z m2017 124 l130 -38 3 -161 c2 -121 -1 -163 -10
-171 -10 -8 -49 -2 -143 21 l-130 32 -3 169 c-2 129 1 171 10 178 7 4 13 8 13
8 0 0 59 -17 130 -38z m-2337 -154 c8 -8 12 -58 12 -160 l0 -148 -52 -30 c-91
-52 -93 -50 -96 127 l-3 151 58 36 c66 40 65 40 81 24z m-253 -301 l0 -148
-47 -26 c-75 -41 -78 -36 -78 126 l0 139 48 31 c76 50 77 48 77 -122z m1491
93 c82 -17 157 -33 167 -36 15 -5 17 -23 17 -190 0 -156 -2 -186 -15 -190 -17
-7 -295 33 -332 47 -23 8 -23 11 -23 197 0 104 3 192 7 195 10 10 19 9 179
-23z m2433 -21 c42 -12 82 -26 89 -31 8 -7 12 -48 12 -139 0 -108 -3 -129 -16
-137 -16 -9 -169 22 -186 37 -9 8 -12 266 -3 281 9 14 18 13 104 -11z m-2980
-13 c8 -9 11 -69 9 -192 l-3 -179 -77 -29 c-42 -16 -84 -26 -92 -23 -14 6 -16
32 -16 187 l0 181 73 33 c83 39 90 41 106 22z m1136 -86 c171 -33 155 -10 155
-210 0 -151 -2 -171 -17 -177 -29 -11 -286 35 -300 54 -17 22 -18 315 -2 345
7 13 17 18 32 15 12 -3 72 -15 132 -27z m2156 10 l69 -21 0 -134 c0 -95 -3
-134 -12 -137 -13 -5 -150 26 -168 37 -6 4 -10 58 -10 141 l0 134 26 0 c15 0
58 -9 95 -20z m274 -80 l50 -17 0 -129 0 -129 -31 1 c-17 1 -56 9 -87 18 l-57
17 0 128 c0 94 3 131 13 134 14 6 45 0 112 -23z m-3937 -169 c2 -107 -1 -168
-8 -176 -19 -23 -131 -56 -147 -44 -10 9 -13 50 -13 171 l0 159 63 29 c104 49
102 52 105 -139z m2003 139 c164 -33 149 -12 149 -200 0 -136 -2 -162 -15
-167 -20 -7 -246 26 -262 39 -10 8 -13 55 -13 173 0 89 3 165 7 168 9 10 20 9
134 -13z m-2313 -266 c3 -168 6 -160 -70 -189 -74 -28 -78 -21 -78 151 l0 144
48 25 c26 13 58 24 72 22 l25 -2 3 -151z m-260 -106 l3 -146 -45 -17 c-80 -31
-81 -29 -81 130 l0 140 45 23 c74 37 75 37 78 -130z m3918 96 c44 -9 85 -21
92 -26 8 -7 12 -48 12 -140 0 -108 -2 -130 -16 -135 -29 -11 -178 16 -191 34
-16 21 -18 235 -3 264 13 23 9 23 106 3z m333 -68 l46 -11 0 -135 0 -135 -53
2 c-29 1 -71 7 -92 13 l-40 11 0 133 c0 73 3 136 7 140 8 7 56 1 132 -18z
m273 -56 l39 -11 -3 -127 -3 -127 -61 2 c-34 2 -73 7 -88 13 l-26 10 0 123 c0
68 3 127 8 131 8 9 75 1 134 -14z m-3015 -59 c77 -10 146 -22 152 -25 17 -11
15 -372 -2 -379 -15 -6 -334 20 -348 28 -10 7 -13 378 -2 388 10 10 44 8 200
-12z m-559 -200 c1 -102 -1 -188 -6 -193 -5 -5 -43 -14 -86 -22 -111 -19 -108
-24 -104 185 2 92 6 170 9 174 12 11 133 43 159 42 l25 -2 3 -184z m1147 128
c61 -6 116 -16 123 -22 9 -7 12 -55 12 -179 0 -140 -3 -170 -15 -174 -8 -3
-77 -1 -152 5 -108 9 -141 15 -150 28 -9 12 -13 65 -13 178 0 177 4 190 55
181 17 -3 80 -11 140 -17z m-1527 -210 c2 -125 -1 -169 -10 -176 -21 -17 -131
-33 -145 -21 -14 12 -19 304 -5 324 9 15 100 43 132 41 l25 -2 3 -166z m2030
149 c53 -6 103 -15 110 -21 9 -7 12 -50 10 -171 l-3 -161 -100 3 c-54 2 -117
7 -140 11 l-40 7 -3 172 -2 172 35 0 c20 0 80 -5 133 -12z m-2343 -223 l0
-160 -60 -12 c-42 -8 -63 -8 -72 -1 -18 15 -18 293 -1 305 20 13 91 32 113 30
19 -2 20 -9 20 -162z m-257 -57 c3 -162 8 -150 -68 -162 -59 -10 -61 -5 -58
150 l3 139 35 12 c19 7 46 11 60 10 l25 -2 3 -147z m3912 121 c46 -5 90 -15
97 -21 15 -12 18 -244 4 -267 -7 -11 -27 -13 -95 -8 -48 3 -91 9 -96 12 -17
11 -13 295 4 295 1 0 40 -5 86 -11z m373 -45 c15 -5 17 -20 17 -140 0 -100 -3
-134 -12 -135 -46 -4 -155 5 -165 13 -14 12 -19 259 -6 272 8 7 130 0 166 -10z
m260 -36 c15 -8 17 -25 17 -133 0 -90 -3 -125 -12 -128 -21 -7 -142 5 -155 16
-14 10 -19 248 -6 260 8 9 133 -3 156 -15z m-2887 -315 c12 -4 14 -39 12 -192
l-3 -186 -180 0 -180 0 -3 185 c-1 101 0 191 3 199 5 12 32 13 171 7 92 -4
173 -10 180 -13z m-712 -9 c3 -9 6 -91 6 -184 0 -132 -3 -170 -14 -179 -9 -8
-43 -11 -93 -9 l-78 3 0 185 0 185 35 6 c73 13 138 10 144 -7z m1264 -10 c22
-4 22 -6 22 -178 0 -149 -2 -175 -16 -180 -9 -3 -78 -6 -154 -6 -127 0 -140 2
-150 19 -13 26 -13 316 1 342 10 19 17 20 142 14 73 -3 142 -8 155 -11z
m-1640 -173 c2 -112 -1 -168 -9 -177 -14 -17 -111 -19 -140 -4 -17 10 -19 23
-19 163 0 84 4 157 8 164 9 14 51 21 112 19 l45 -1 3 -164z m2135 153 c15 -5
17 -21 17 -163 0 -109 -4 -161 -12 -169 -13 -13 -232 -18 -262 -6 -14 5 -16
30 -16 174 0 125 3 170 13 174 13 6 232 -3 260 -10z m-2445 -169 c3 -169 1
-175 -71 -175 -76 0 -77 3 -77 163 0 101 4 147 12 155 8 8 35 12 73 10 l60 -3
3 -150z m3180 134 c103 -23 188 -85 234 -171 l23 -43 3 -782 2 -782 -52 -16
c-29 -8 -207 -54 -395 -102 -284 -71 -345 -83 -358 -73 -14 11 -15 109 -13
879 l3 866 25 50 c50 101 143 164 280 185 60 10 180 4 248 -11z m-3443 -149
l0 -145 -60 0 -60 0 -3 134 c-2 92 1 138 9 148 9 9 28 13 63 11 l51 -3 0 -145z
m4013 127 c18 -14 17 -250 -2 -266 -9 -8 -46 -11 -103 -9 l-88 3 -3 139 c-2
98 1 142 9 147 16 10 171 -1 187 -14z m287 -137 l0 -135 -90 0 -90 0 -3 124
c-1 69 0 131 3 138 3 11 26 13 92 11 l88 -3 0 -135z m260 -5 l0 -130 -85 0
-85 0 -3 119 c-1 66 0 126 3 133 3 10 25 13 87 11 l83 -3 0 -130z m-11 -291
c13 -5 16 -26 16 -130 0 -146 -1 -147 -108 -142 l-67 3 0 130 0 130 60 6 c33
3 65 6 72 7 6 1 18 -1 27 -4z m-244 -149 c0 -153 10 -138 -102 -149 -90 -9
-88 -13 -88 139 0 97 3 135 13 138 6 3 49 6 95 6 l82 1 0 -135z m-286 109 c3
-9 6 -69 6 -134 0 -92 -3 -120 -15 -130 -8 -7 -55 -15 -105 -18 l-90 -5 0 146
c0 168 -10 154 116 156 66 1 83 -2 88 -15z m-4026 -2 c9 -7 12 -44 10 -153
l-3 -144 -49 3 c-75 4 -76 6 -76 157 0 72 3 135 7 138 9 10 95 8 111 -1z m265
-29 c4 -2 7 -74 7 -159 0 -178 2 -174 -88 -153 l-57 14 -3 144 c-3 173 -2 176
77 166 31 -4 59 -9 64 -12z m303 -34 c20 -16 20 -321 1 -338 -15 -12 -121 4
-144 22 -14 11 -19 317 -5 331 10 11 132 -1 148 -15z m2162 -147 l2 -162 -24
-10 c-13 -5 -77 -10 -142 -12 l-119 -3 0 170 0 170 35 6 c19 4 82 6 140 5
l105 -1 3 -163z m-490 -34 l2 -178 -22 -4 c-13 -3 -81 -10 -152 -16 -95 -7
-132 -7 -142 1 -19 16 -20 327 -1 352 13 18 80 24 232 23 l80 -1 3 -177z
m-1300 151 c22 -8 22 -11 22 -188 0 -144 -3 -181 -15 -191 -11 -9 -31 -8 -91
4 -43 9 -80 19 -83 22 -3 3 -7 81 -9 173 -4 203 -4 202 90 194 35 -3 73 -10
86 -14z m740 -187 c2 -182 2 -182 -20 -191 -31 -11 -325 -34 -338 -26 -16 10
-13 370 3 383 15 13 100 19 247 18 l105 -1 3 -183z m2890 -234 c3 -143 11
-129 -87 -148 -91 -17 -91 -18 -91 124 0 87 4 127 13 134 14 12 65 20 122 18
l40 -1 3 -127z m-260 -36 l3 -132 -26 -10 c-15 -6 -57 -13 -96 -16 l-69 -7 0
137 c0 113 3 138 15 142 23 9 117 22 145 20 l25 -1 3 -133z m-280 -38 c2 -97
-1 -134 -10 -142 -16 -13 -167 -42 -185 -35 -17 6 -19 278 -2 288 17 11 101
23 149 22 l45 -2 3 -131z m-4065 100 l47 -16 0 -144 c0 -111 -3 -146 -13 -150
-8 -3 -36 3 -63 13 l-49 19 -3 134 c-1 74 0 140 2 147 7 17 22 16 79 -3z m277
-77 c25 -12 25 -12 28 -165 2 -136 1 -153 -14 -159 -20 -7 -115 23 -126 41
-10 15 -10 290 0 300 9 10 78 -1 112 -17z m2478 -59 c14 -14 17 -323 4 -332
-16 -10 -255 -47 -269 -42 -10 4 -13 42 -13 175 0 198 -19 173 150 195 58 7
107 14 111 15 3 0 10 -4 17 -11z m-2203 -16 l60 -18 3 -166 c3 -197 3 -198
-83 -168 -32 11 -64 25 -71 31 -11 9 -14 48 -14 169 0 86 3 160 7 163 10 11
33 8 98 -11z m1723 -220 c3 -203 23 -178 -173 -211 -123 -21 -130 -21 -142 -5
-18 25 -18 323 0 347 13 18 186 46 267 44 l45 -2 3 -173z m-1348 115 l65 -22
3 -181 c2 -145 0 -183 -12 -193 -10 -9 -31 -5 -92 18 l-79 29 -3 173 c-1 95 0
179 2 186 7 18 40 15 116 -10z m788 -198 c2 -150 0 -188 -11 -192 -33 -12
-328 -59 -342 -53 -22 8 -23 384 0 392 27 11 269 42 310 41 l40 -2 3 -186z"/>
</g>
</svg>
